{
    "name": "tabbutton",
    "version": "0.1.0",
    "author": "bydooweedoo <remi@itsium.cn>",
    "roc_type": "component",
    "description": "Tabbutton component for ROC framework.",
    "standalone": false,
    "roc_config": {
        "xtype": "<%= roc.current.name %>"
    },
    "javascripts": [
        "javascripts/tabbutton.handlebars.js"
    ],
    "roc_dependencies": {
        "component.button": ">=0.1.0"
    }
}
