{
    "name": "button",
    "version": "0.1.0",
    "author": "bydooweedoo <remi@itsium.cn>",
    "roc_type": "ionic.ui",
    "description": "Button ui for ionic engine.",
    "standalone": false,
    "templates": [
        "templates/button.handlebars.hbs"
    ],
    "javascripts": [
        "javascripts/comments.handlebars.js"
    ],
    "roc_dependencies": {
        "handlebars.partials.css_class": "0.1.0",
        "handlebars.partials.style": "0.1.0",
        "handlebars.partials.id": "0.1.0",
        "handlebars.helpers.ifeq": "0.1.0",
        "component.button": "0.x"
    }
}
