{
    "name": "abstract",
    "version": "0.1.0",
    "author": "bydooweedoo <remi@itsium.cn>",
    "roc_type": "component",
    "description": "Abstract component for ROC framework.",
    "standalone": false,
    "roc_config": {
        "xtype": "<%= roc.current.name %>"
    },
    "templates": [
        "templates/abstract.handlebars.hbs"
    ],
    "javascripts": [
        "javascripts/abstract.handlebars.js"
    ],
    "roc_dependencies": {
        "component.template": ">=0.1.0"
    }
}
