{
    "name": "popup",
    "version": "0.1.0",
    "author": "bydooweedoo <remi@itsium.cn>",
    "roc_type": "component",
    "description": "Popup component for ROC framework.",
    "standalone": false,
    "javascripts": [
        "javascripts/popup.handlebars.js"
    ],
    "roc_dependencies": {
        "component.template": "~0.1.0"
    }
}
