{
    "name": "jquerymobile",
    "version": "1.3.1",
    "roc_type": "app",
    "roc_tags": ["mobile", "jquerymobile", "demo"],
    "debug_test_command": "rm -rf dist/* && clear && grunt --stack pack --config demo/jquerymobile/app.roc.json && la dist/tmp-*/",
    "roc_config": {
        "output": "./",
        "engine": "jquerymobile",
        "jquerymobile.theme.default": {
            "main-color": "@TODO"
        }
    },
    "roc_dependencies": {
        "options": {
            "exclude": {
                "roc_type": ["vendor"]
            },
            "templates": {
                "auto": true
            },
            "vendors": {
                "exclude": true
            },
            "recursive_paths": true,
            "paths": [
                "<%= roc.paths.framework %>packages"
            ]
        },
        "theme.entypo": ">=0.1.0",
        "<%= roc.engine %>.theme.default": ">=0.1.0",
        "<%= roc.engine %>.ui.switch": ">=0.1.0",
        "<%= roc.engine %>.ui.textarea": ">=0.1.0",
        "<%= roc.engine %>.ui.textfield": ">=0.1.0",
        "<%= roc.engine %>.ui.page": ">=0.1.0",
        "<%= roc.engine %>.ui.header": ">=0.1.0",
        "<%= roc.engine %>.ui.toolbar": ">=0.1.0",
        "<%= roc.engine %>.ui.button": ">=0.1.0",
        "<%= roc.engine %>.ui.content": ">=0.1.0",
        "<%= roc.engine %>.ui.footer": ">=0.1.0",
        "<%= roc.engine %>.ui.tabs": ">=0.1.0",
        "<%= roc.engine %>.ui.tabbutton": ">=0.1.0",
        "<%= roc.engine %>.ui.controlgroup": ">=0.1.0",
        "<%= roc.engine %>.ui.list": ">=0.1.0"
    },
    "javascripts": [
        "javascripts/jquerymobile.handlebars.js"
    ],
    "htmls": [
        "htmls/index.handlebars.html"
    ]
}
