{
    "name": "roc",
    "version": "0.1.0",
    "author": "bydooweedoo <remi@itsium.cn>",
    "roc_type": "core",
    "description": "ROC core.",
    "standalone": true,
    "javascripts": [
        "javascripts/core.handlebars.js",
        "javascripts/debug.handlebars.js",
        "javascripts/utils.handlebars.js",
        "javascripts/storage.handlebars.js",
        "javascripts/selector.handlebars.js",
        "javascripts/request.handlebars.js",
        "javascripts/history.handlebars.js",
        "javascripts/router.handlebars.js",
        "javascripts/event.handlebars.js",
        "javascripts/templates.handlebars.js",
        "javascripts/settings.handlebars.js",
        "javascripts/app.handlebars.js",
        "javascripts/events/abstract.handlebars.js",
        "javascripts/events/click.handlebars.js",
        "javascripts/events/scroll.handlebars.js",
        "javascripts/events/resize.handlebars.js",
        "javascripts/events/nobounce.handlebars.js",
        "javascripts/events/focus.handlebars.js",
        "javascripts/events/blur.handlebars.js",
        "javascripts/events/keypress.handlebars.js"
    ],
    "roc_dependencies": {
        "processors.coffee": "0.x",
        "processors.less": "0.x",
        "processors.handlebars": "0.x",
        "processors.handlebars_partials": "0.x",
        "processors.handlebars_templates": "0.x",
        "comments.jsdoc": ">=0.x",
        "polyfills.bind": ">=0.x",
        "vendor.handlebars": ">=1.x",
        "famous.inputs.fastclick": ">=0.x"
    }
}
