{
    "name": "row",
    "version": "0.1.0",
    "author": "bydooweedoo <remi@itsium.cn>",
    "roc_type": "ionic.ui",
    "description": "Row ui for ionic engine.",
    "standalone": false,
    "javascripts": [
        "javascripts/comments.hbs.js"
    ],
    "templates": [
        "templates/row.handlebars.hbs"
    ],
    "roc_dependencies": {
        "core.roc": "~0.1.0",
        "handlebars.helpers.foreach": ">=0.1.0",
        "handlebars.partials.css_class": ">=0.1.0",
        "handlebars.partials.style": ">=0.1.0",
        "handlebars.partials.id": ">=0.1.0",
        "handlebars.partials.items": ">=0.1.0",
        "component.template": ">=0.1.0"
    }
}
