{
    "name": "listitemavatar",
    "version": "0.1.0",
    "author": "bydooweedoo <remi@itsium.cn>",
    "roc_type": "ionic.ui",
    "description": "Listitemavatar ui for ionic engine.",
    "standalone": false,
    "javascripts": [
        "javascripts/comments.hbs.js"
    ],
    "templates": [
        "templates/listitemavatar.handlebars.hbs"
    ],
    "roc_dependencies": {
        "core.roc": "~0.1.0",
        "handlebars.helpers.foreach": ">=0.1.0"
    }
}
