{
    "name": "page",
    "version": "0.1.0",
    "author": "bydooweedoo <remi@itsium.cn>",
    "roc_type": "jquerymobile.ui",
    "description": "Page ui for jquerymobile.",
    "standalone": false,
    "templates": [
        "templates/page.handlebars.tpl"
    ],
    "roc_dependencies": {
        "handlebars.partials.items": "~0.1.0",
        "handlebars.partials.css_class": "~0.1.0",
        "handlebars.partials.id": "~0.1.0",
        "jquerymobile.engine.default": ">=0.1.0",
        "component.page": "true",
        "vendor.handlebars": ">=0.1.0"
    }
}
