{
    "name": "ns",
    "version": "0.1.0",
    "author": "bydooweedoo <remi@itsium.cn>",
    "roc_type": "handlebars.server",
    "javascripts": [
        "comments.hbs.js"
    ],
    "description": "Handlebars ns server helper.",
    "standalone": false
}
