{
    "name": "roc-ratchet",
    "version": "1.0.0",
    "requires": [{
        "engine": "ratchet",
        "classes": [
            "views.inputgroup",
            "views.flipswitch",
            "views.textarea",
            "views.textfield",
            "views.toolbar",
            "views.tabbutton",
            "views.header",
            "views.page",
            "views.footer",
            "views.button",
            "views.abstract",
            "views.content",
            "views.container",
            "views.controlgroup",
            "views.list",
            "views.bubble",
            "views.tabs"
        ],
        "templates": {
            "auto": true
        }
    }],
    "clean": {
        "options": {
            "force": true
        },
        "ratchet-devfile": [
            "<%= project.basePath %>roc-ratchet.js",
            "<%= project.basePath %>roc-ratchet.comments.js"
        ]
    },
    "include_vendors": true,
    "dest": "./"
}