{
    "name": "example-routes-1",
    "version": "1.0.0",
    "roc_type": "app",
    "roc_tags": ["mobile", "app", "demo"],
    "minify": false,
    "roc_dependencies": {
        "ionic.theme.default": ">=0.1.0",
        "ionic.theme.ios7": ">=0.1.0",
        "ionic.engine.default": ">=0.1.0",
        "ionic.ui.header": ">=0.1.0",
        "ionic.ui.headertitle": ">=0.1.0",
        "ionic.ui.page": ">=0.1.0",
        "ionic.ui.button": ">=0.1.0",
        "ionic.ui.content": ">=0.1.0",
        "ionic.ui.container": ">=0.1.0",
        "helpers.routerview": ">=0.1.0",
        "fx.animate.css": "~0.1.0"
    },
    "stylesheets": [
        "stylesheets/*.css"
    ],
    "javascripts": [
        "javascripts/routes.handlebars.js",
        "javascripts/views/home.handlebars.js",
        "javascripts/views/profile.handlebars.js",
        "javascripts/app.handlebars.js"
    ],
    "htmls": [
        "htmls/index.handlebars.html"
    ]
}
