{
    "name": "carousel",
    "version": "0.1.0",
    "author": "bydooweedoo <remi@itsium.cn>",
    "roc_type": "component",
    "description": "Carousel component for ROC framework.",
    "standalone": false,
    "javascripts": [
        "javascripts/carousel.handlebars.js"
    ],
    "stylesheets": [
        "stylesheets/*"
    ],
    "roc_dependencies": {
        "physics.scroll": "~0.1.0"
    }
}
