{
    "name": "controlgroup",
    "version": "0.1.0",
    "author": "bydooweedoo <remi@itsium.cn>",
    "roc_type": "jquerymobile.ui",
    "description": "Controlgroup ui for jquerymobile.",
    "standalone": false,
    "templates": [
        "templates/controlgroup.handlebars.tpl"
    ],
    "roc_dependencies": {
        "handlebars.partials.geticon": "~0.1.0",
        "handlebars.partials.css_class": "~0.1.0",
        "handlebars.partials.id": "~0.1.0",
        "handlebars.partials.style": "~0.1.0",
        "handlebars.helpers.if_eq": "~0.1.0",
        "handlebars.helpers.foreach": "~0.1.0",
        "handlebars.helpers.geticon": "~0.1.0",
        "jquerymobile.engine.default": ">=0.1.0",
        "component.controlgroup": "true",
        "vendor.handlebars": ">=0.1.0"
    }
}
